stm32g4xx_hal_msp.c:65:6:HAL_MspInit	8	static
stm32g4xx_hal_msp.c:93:6:HAL_ADC_MspInit	56	static
stm32g4xx_hal_msp.c:172:6:HAL_ADC_MspDeInit	8	static
stm32g4xx_hal_msp.c:226:6:HAL_FDCAN_MspInit	40	static
stm32g4xx_hal_msp.c:265:6:HAL_FDCAN_MspDeInit	8	static
stm32g4xx_hal_msp.c:296:6:HAL_SPI_MspInit	48	static
stm32g4xx_hal_msp.c:341:6:HAL_SPI_MspDeInit	8	static
stm32g4xx_hal_msp.c:373:6:HAL_UART_MspInit	40	static
stm32g4xx_hal_msp.c:413:6:HAL_UART_MspDeInit	8	static
